{
  "data": [
    {
      "id": 1,
      "first_name": "LeBron",
      "last_name": "James",
      "position": "F",
      "height_feet": 6,
      "height_inches": 8,
      "weight_pounds": 250,
      "team": {
        "id": 14,
        "abbreviation": "LAL",
        "city": "Los Angeles",
        "conference": "West",
        "division": "Pacific",
        "full_name": "Los Angeles Lakers",
        "name": "Lakers"
      }
    }
  ],
  "meta": {
    "total_pages": 50,
    "current_page": 1,
    "next_page": 2,
    "per_page": 25,
    "total_count": 9999
  }
}
